"Adult mortality rate (probability of dying between 15 and 60 years per 1000 population)","Adult mortality rate (probability of dying between 15 and 60 years per 1000 population)","Adult mortality rate (probability of dying between 15 and 60 years per 1000 population)"
"WHO region","Year","Both sexes","Male","Female"
Global,2016,142,171,112
Global,2015,144,174,114
Global,2014,146,176,115
Global,2013,148,178,117
Global,2012,150,180,119
Global,2011,152,181,121
Global,2010,156,185,125
Global,2009,158,188,127
Global,2008,163,193,131
Global,2007,165,195,134
Global,2006,169,199,137
Global,2005,172,203,140
Global,2004,175,206,143
Global,2003,176,207,144
Global,2002,177,208,145
Global,2001,179,210,146
Global,2000,181,214,147

